99998012
99998013
99998014
99998015
99998016
99998017
99998018
99998019
99998020
99998021
99998022
99998023
99998024
99998025
99998026
99998027
99998028
99998029
99998030
99998031
99998032
99998033
99998034
99998035
99998036
99998037
99998038
99998039
99998040
99998041
99998042
99998043
99998044
99998045
99998046
99998047
99998048
99998049
99998050
99998051
99998052
99998053
99998054
99998055
99998056
99998057
99998058
99998059
99998060
99998061
99998062
99998063
99998064
99998065
99998066
99998067
99998068
99998069
99998070
99998071
99998072
99998073
99998074
99998075
99998076
99998077
99998078
99998079
99998080
99998081
99998082
99998083
99998084
99998085
99998086
99998087
99998088
99998089
99998090
99998091
99998092
99998093
99998094
99998095
99998096
99998097
99998098
99998099
99998100
99998101
99998102
99998103
99998104
99998105
99998106
99998107
99998108
99998109
99998110
99998111
99998112
99998113
99998114
99998115
99998116
99998117
99998118
99998119
99998120
99998121
99998122
99998123
99998124
99998125
99998126
99998127
99998128
99998129
99998130
99998131
99998132
99998133
99998134
99998135
99998136
99998137
99998138
99998139
99998140
99998141
99998142
99998143
99998144
99998145
99998146
99998147
99998148
99998149
99998150
99998151
99998152
99998153
99998154
99998155
99998156
99998157
99998158
99998159
99998160
99998161
99998162
99998163
99998164
99998165
99998166
99998167
99998168
99998169
99998170
99998171
99998172
99998173
99998174
99998175
99998176
99998177
99998178
99998179
99998180
99998181
99998182
99998183
99998184
99998185
99998186
99998187
99998188
99998189
99998190
99998191
99998192
99998193
99998194
99998195
99998196
99998197
99998198
99998199
99998200
99998201
99998202
99998203
99998204
99998205
99998206
99998207
99998208
99998209
99998210
99998211
99998212
99998213
99998214
99998215
99998216
99998217
99998218
99998219
99998220
99998221
99998222
99998223
99998224
99998225
99998226
99998227
99998228
99998229
99998230
99998231
99998232
99998233
99998234
99998235
99998236
99998237
99998238
99998239
99998240
99998241
99998242
99998243
99998244
99998245
99998246
99998247
99998248
99998249
99998250
99998251
99998252
99998253
99998254
99998255
99998256
99998257
99998258
99998259
99998260
99998261
99998262
99998263
99998264
99998265
99998266
99998267
99998268
99998269
99998270
99998271
99998272
99998273
99998274
99998275
99998276
99998277
99998278
99998279
99998280
99998281
99998282
99998283
99998284
99998285
99998286
99998287
99998288
99998289
99998290
99998291
99998292
99998293
99998294
99998295
99998296
99998297
99998298
99998299
99998300
99998301
99998302
99998303
99998304
99998305
99998306
99998307
99998308
99998309
99998310
99998311
99998312
99998313
99998314
99998315
99998316
99998317
99998318
99998319
99998320
99998321
99998322
99998323
99998324
99998325
99998326
99998327
99998328
99998329
99998330
99998331
99998332
99998333
99998334
99998335
99998336
99998337
99998338
99998339
99998340
99998341
99998342
99998343
99998344
99998345
99998346
99998347
99998348
99998349
99998350
99998351
99998352
99998353
99998354
99998355
99998356
99998357
99998358
99998359
99998360
99998361
99998362
99998363
99998364
99998365
99998366
99998367
99998368
99998369
99998370
99998371
99998372
99998373
99998374
99998375
99998376
99998377
99998378
99998379
99998380
99998381
99998382
99998383
99998384
99998385
99998386
99998387
99998388
99998389
99998390
99998391
99998392
99998393
99998394
99998395
99998396
99998397
99998398
99998399
99998400
99998401
99998402
99998403
99998404
99998405
99998406
99998407
99998408
99998409
99998410
99998411
99998412
99998413
99998414
99998415
99998416
99998417
99998418
99998419
99998420
99998421
99998422
99998423
99998424
99998425
99998426
99998427
99998428
99998429
99998430
99998431
99998432
99998433
99998434
99998435
99998436
99998437
99998438
99998439
99998440
99998441
99998442
99998443
99998444
99998445
99998446
99998447
99998448
99998449
99998450
99998451
99998452
99998453
99998454
99998455
99998456
99998457
99998458
99998459
99998460
99998461
99998462
99998463
99998464
99998465
99998466
99998467
99998468
99998469
99998470
99998471
99998472
99998473
99998474
99998475
99998476
99998477
99998478
99998479
99998480
99998481
99998482
99998483
99998484
99998485
99998486
99998487
99998488
99998489
99998490
99998491
99998492
99998493
99998494
99998495
99998496
99998497
99998498
99998499
99998500
99998501
99998502
99998503
99998504
99998505
99998506
99998507
99998508
99998509
99998510
99998511
99998512
99998513
99998514
99998515
99998516
99998517
99998518
99998519
99998520
99998521
99998522
99998523
99998524
99998525
99998526
99998527
99998528
99998529
99998530
99998531
99998532
99998533
99998534
99998535
99998536
99998537
99998538
99998539
99998540
99998541
99998542
99998543
99998544
99998545
99998546
99998547
99998548
99998549
99998550
99998551
99998552
99998553
99998554
99998555
99998556
99998557
99998558
99998559
99998560
99998561
99998562
99998563
99998564
99998565
99998566
99998567
99998568
99998569
99998570
99998571
99998572
99998573
99998574
99998575
99998576
99998577
99998578
99998579
99998580
99998581
99998582
99998583
99998584
99998585
99998586
99998587
99998588
99998589
99998590
99998591
99998592
99998593
99998594
99998595
99998596
99998597
99998598
99998599
99998600
99998601
99998602
99998603
99998604
99998605
99998606
99998607
99998608
99998609
99998610
99998611
99998612
99998613
99998614
99998615
99998616
99998617
99998618
99998619
99998620
99998621
99998622
99998623
99998624
99998625
99998626
99998627
99998628
99998629
99998630
99998631
99998632
99998633
99998634
99998635
99998636
99998637
99998638
99998639
99998640
99998641
99998642
99998643
99998644
99998645
99998646
99998647
99998648
99998649
99998650
99998651
99998652
99998653
99998654
99998655
99998656
99998657
99998658
99998659
99998660
99998661
99998662
99998663
99998664
99998665
99998666
99998667
99998668
99998669
99998670
99998671
99998672
99998673
99998674
99998675
99998676
99998677
99998678
99998679
99998680
99998681
99998682
99998683
99998684
99998685
99998686
99998687
99998688
99998689
99998690
99998691
99998692
99998693
99998694
99998695
99998696
99998697
99998698
99998699
99998700
99998701
99998702
99998703
99998704
99998705
99998706
99998707
99998708
99998709
99998710
99998711
99998712
99998713
99998714
99998715
99998716
99998717
99998718
99998719
99998720
99998721
99998722
99998723
99998724
99998725
99998726
99998727
99998728
99998729
99998730
99998731
99998732
99998733
99998734
99998735
99998736
99998737
99998738
99998739
99998740
99998741
99998742
99998743
99998744
99998745
99998746
99998747
99998748
99998749
99998750
99998751
99998752
99998753
99998754
99998755
99998756
99998757
99998758
99998759
99998760
99998761
99998762
99998763
99998764
99998765
99998766
99998767
99998768
99998769
99998770
99998771
99998772
99998773
99998774
99998775
99998776
99998777
99998778
99998779
99998780
99998781
99998782
99998783
99998784
99998785
99998786
99998787
99998788
99998789
99998790
99998791
99998792
99998793
99998794
99998795
99998796
99998797
99998798
99998799
99998800
99998801
99998802
99998803
99998804
99998805
99998806
99998807
99998808
99998809
99998810
99998811
99998812
99998813
99998814
99998815
99998816
99998817
99998818
99998819
99998820
99998821
99998822
99998823
99998824
99998825
99998826
99998827
99998828
99998829
99998830
99998831
99998832
99998833
99998834
99998835
99998836
99998837
99998838
99998839
99998840
99998841
99998842
99998843
99998844
99998845
99998846
99998847
99998848
99998849
99998850
99998851
99998852
99998853
99998854
99998855
99998856
99998857
99998858
99998859
99998860
99998861
99998862
99998863
99998864
99998865
99998866
99998867
99998868
99998869
99998870
99998871
99998872
99998873
99998874
99998875
99998876
99998877
99998878
99998879
99998880
99998881
99998882
99998883
99998884
99998885
99998886
99998887
99998888
99998889
99998890
99998891
99998892
99998893
99998894
99998895
99998896
99998897
99998898
99998899
99998900
99998901
99998902
99998903
99998904
99998905
99998906
99998907
99998908
99998909
99998910
99998911
99998912
99998913
99998914
99998915
99998916
99998917
99998918
99998919
99998920
99998921
99998922
99998923
99998924
99998925
99998926
99998927
99998928
99998929
99998930
99998931
99998932
99998933
99998934
99998935
99998936
99998937
99998938
99998939
99998940
99998941
99998942
99998943
99998944
99998945
99998946
99998947
99998948
99998949
99998950
99998951
99998952
99998953
99998954
99998955
99998956
99998957
99998958
99998959
99998960
99998961
99998962
99998963
99998964
99998965
99998966
99998967
99998968
99998969
99998970
99998971
99998972
99998973
99998974
99998975
99998976
99998977
99998978
99998979
99998980
99998981
99998982
99998983
99998984
99998985
99998986
99998987
99998988
99998989
99998990
99998991
99998992
99998993
99998994
99998995
99998996
99998997
99998998
99998999
99999000
99999001
99999002
99999003
99999004
99999005
99999006
99999007
99999008
99999009
99999010
99999011
99999012
99999013
99999014
99999015
99999016
99999017
99999018
99999019
99999020
99999021
99999022
99999023
99999024
99999025
99999026
99999027
99999028
99999029
99999030
99999031
99999032
99999033
99999034
99999035
99999036
99999037
99999038
99999039
99999040
99999041
99999042
99999043
99999044
99999045
99999046
99999047
99999048
99999049
99999050
99999051
99999052
99999053
99999054
99999055
99999056
99999057
99999058
99999059
99999060
99999061
99999062
99999063
99999064
99999065
99999066
99999067
99999068
99999069
99999070
99999071
99999072
99999073
99999074
99999075
99999076
99999077
99999078
99999079
99999080
99999081
99999082
99999083
99999084
99999085
99999086
99999087
99999088
99999089
99999090
99999091
99999092
99999093
99999094
99999095
99999096
99999097
99999098
99999099
99999100
99999101
99999102
99999103
99999104
99999105
99999106
99999107
99999108
99999109
99999110
99999111
99999112
99999113
99999114
99999115
99999116
99999117
99999118
99999119
99999120
99999121
99999122
99999123
99999124
99999125
99999126
99999127
99999128
99999129
99999130
99999131
99999132
99999133
99999134
99999135
99999136
99999137
99999138
99999139
99999140
99999141
99999142
99999143
99999144
99999145
99999146
99999147
99999148
99999149
99999150
99999151
99999152
99999153
99999154
99999155
99999156
99999157
99999158
99999159
99999160
99999161
99999162
99999163
99999164
99999165
99999166
99999167
99999168
99999169
99999170
99999171
99999172
99999173
99999174
99999175
99999176
99999177
99999178
99999179
99999180
99999181
99999182
99999183
99999184
99999185
99999186
99999187
99999188
99999189
99999190
99999191
99999192
99999193
99999194
99999195
99999196
99999197
99999198
99999199
99999200
99999201
99999202
99999203
99999204
99999205
99999206
99999207
99999208
99999209
99999210
99999211
99999212
99999213
99999214
99999215
99999216
99999217
99999218
99999219
99999220
99999221
99999222
99999223
99999224
99999225
99999226
99999227
99999228
99999229
99999230
99999231
99999232
99999233
99999234
99999235
99999236
99999237
99999238
99999239
99999240
99999241
99999242
99999243
99999244
99999245
99999246
99999247
99999248
99999249
99999250
99999251
99999252
99999253
99999254
99999255
99999256
99999257
99999258
99999259
99999260
99999261
99999262
99999263
99999264
99999265
99999266
99999267
99999268
99999269
99999270
99999271
99999272
99999273
99999274
99999275
99999276
99999277
99999278
99999279
99999280
99999281
99999282
99999283
99999284
99999285
99999286
99999287
99999288
99999289
99999290
99999291
99999292
99999293
99999294
99999295
99999296
99999297
99999298
99999299
99999300
99999301
99999302
99999303
99999304
99999305
99999306
99999307
99999308
99999309
99999310
99999311
99999312
99999313
99999314
99999315
99999316
99999317
99999318
99999319
99999320
99999321
99999322
99999323
99999324
99999325
99999326
99999327
99999328
99999329
99999330
99999331
99999332
99999333
99999334
99999335
99999336
99999337
99999338
99999339
99999340
99999341
99999342
99999343
99999344
99999345
99999346
99999347
99999348
99999349
99999350
99999351
99999352
99999353
99999354
99999355
99999356
99999357
99999358
99999359
99999360
99999361
99999362
99999363
99999364
99999365
99999366
99999367
99999368
99999369
99999370
99999371
99999372
99999373
99999374
99999375
99999376
99999377
99999378
99999379
99999380
99999381
99999382
99999383
99999384
99999385
99999386
99999387
99999388
99999389
99999390
99999391
99999392
99999393
99999394
99999395
99999396
99999397
99999398
99999399
99999400
99999401
99999402
99999403
99999404
99999405
99999406
99999407
99999408
99999409
99999410
99999411
99999412
99999413
99999414
99999415
99999416
99999417
99999418
99999419
99999420
99999421
99999422
99999423
99999424
99999425
99999426
99999427
99999428
99999429
99999430
99999431
99999432
99999433
99999434
99999435
99999436
99999437
99999438
99999439
99999440
99999441
99999442
99999443
99999444
99999445
99999446
99999447
99999448
99999449
99999450
99999451
99999452
99999453
99999454
99999455
99999456
99999457
99999458
99999459
99999460
99999461
99999462
99999463
99999464
99999465
99999466
99999467
99999468
99999469
99999470
99999471
99999472
99999473
99999474
99999475
99999476
99999477
99999478
99999479
99999480
99999481
99999482
99999483
99999484
99999485
99999486
99999487
99999488
99999489
99999490
99999491
99999492
99999493
99999494
99999495
99999496
99999497
99999498
99999499
99999500
99999501
99999502
99999503
99999504
99999505
99999506
99999507
99999508
99999509
99999510
99999511
99999512
99999513
99999514
99999515
99999516
99999517
99999518
99999519
99999520
99999521
99999522
99999523
99999524
99999525
99999526
99999527
99999528
99999529
99999530
99999531
99999532
99999533
99999534
99999535
99999536
99999537
99999538
99999539
99999540
99999541
99999542
99999543
99999544
99999545
99999546
99999547
99999548
99999549
99999550
99999551
99999552
99999553
99999554
99999555
99999556
99999557
99999558
99999559
99999560
99999561
99999562
99999563
99999564
99999565
99999566
99999567
99999568
99999569
99999570
99999571
99999572
99999573
99999574
99999575
99999576
99999577
99999578
99999579
99999580
99999581
99999582
99999583
99999584
99999585
99999586
99999587
99999588
99999589
99999590
99999591
99999592
99999593
99999594
99999595
99999596
99999597
99999598
99999599
99999600
99999601
99999602
99999603
99999604
99999605
99999606
99999607
99999608
99999609
99999610
99999611
99999612
99999613
99999614
99999615
99999616
99999617
99999618
99999619
99999620
99999621
99999622
99999623
99999624
99999625
99999626
99999627
99999628
99999629
99999630
99999631
99999632
99999633
99999634
99999635
99999636
99999637
99999638
99999639
99999640
99999641
99999642
99999643
99999644
99999645
99999646
99999647
99999648
99999649
99999650
99999651
99999652
99999653
99999654
99999655
99999656
99999657
99999658
99999659
99999660
99999661
99999662
99999663
99999664
99999665
99999666
99999667
99999668
99999669
99999670
99999671
99999672
99999673
99999674
99999675
99999676
99999677
99999678
99999679
99999680
99999681
99999682
99999683
99999684
99999685
99999686
99999687
99999688
99999689
99999690
99999691
99999692
99999693
99999694
99999695
99999696
99999697
99999698
99999699
99999700
99999701
99999702
99999703
99999704
99999705
99999706
99999707
99999708
99999709
99999710
99999711
99999712
99999713
99999714
99999715
99999716
99999717
99999718
99999719
99999720
99999721
99999722
99999723
99999724
99999725
99999726
99999727
99999728
99999729
99999730
99999731
99999732
99999733
99999734
99999735
99999736
99999737
99999738
99999739
99999740
99999741
99999742
99999743
99999744
99999745
99999746
99999747
99999748
99999749
99999750
99999751
99999752
99999753
99999754
99999755
99999756
99999757
99999758
99999759
99999760
99999761
99999762
99999763
99999764
99999765
99999766
99999767
99999768
99999769
99999770
99999771
99999772
99999773
99999774
99999775
99999776
99999777
99999778
99999779
99999780
99999781
99999782
99999783
99999784
99999785
99999786
99999787
99999788
99999789
99999790
99999791
99999792
99999793
99999794
99999795
99999796
99999797
99999798
99999799
99999800
99999801
99999802
99999803
99999804
99999805
99999806
99999807
99999808
99999809
99999810
99999811
99999812
99999813
99999814
99999815
99999816
99999817
99999818
99999819
99999820
99999821
99999822
99999823
99999824
99999825
99999826
99999827
99999828
99999829
99999830
99999831
99999832
99999833
99999834
99999835
99999836
99999837
99999838
99999839
99999840
99999841
99999842
99999843
99999844
99999845
99999846
99999847
99999848
99999849
99999850
99999851
99999852
99999853
99999854
99999855
99999856
99999857
99999858
99999859
99999860
99999861
99999862
99999863
99999864
99999865
99999866
99999867
99999868
99999869
99999870
99999871
99999872
99999873
99999874
99999875
99999876
99999877
99999878
99999879
99999880
99999881
99999882
99999883
99999884
99999885
99999886
99999887
99999888
99999889
99999890
99999891
99999892
99999893
99999894
99999895
99999896
99999897
99999898
99999899
99999900
99999901
99999902
99999903
99999904
99999905
99999906
99999907
99999908
99999909
99999910
99999911
99999912
99999913
99999914
99999915
99999916
99999917
99999918
99999919
99999920
99999921
99999922
99999923
99999924
99999925
99999926
99999927
99999928
99999929
99999930
99999931
99999932
99999933
99999934
99999935
99999936
99999937
99999938
99999939
99999940
99999941
99999942
99999943
99999944
99999945
99999946
99999947
99999948
99999949
99999950
99999951
99999952
99999953
99999954
99999955
99999956
99999957
99999958
99999959
99999960
99999961
99999962
99999963
99999964
99999965
99999966
99999967
99999968
99999969
99999970
99999971
99999972
99999973
99999974
99999975
99999976
99999977
99999978
99999979
99999980
99999981
99999982
99999983
99999984
99999985
99999986
99999987
99999988
99999989
99999990
99999991
99999992
99999993
99999994
99999995
99999996
99999997                                                                                
99999998
 
